R Notebook
…
These states are SAT scores above the mean SAT score of the USA.

#SD
new_df_j %>% group_by(percent,insurance_premiums) %>% summarise_if(is.numeric,list(sd=sd), na.rm = T)

## # A tibble: 51 x 5
## # Groups:   percent [37]
##    percent insurance_premiums num_drivers_sd pop_sd SATV_sd
##      <int>              <dbl>          <dbl>  <dbl>   <dbl>
##  1       4               896.             NA     NA      NA
##  2       5               649.             NA     NA      NA
##  3       5               669.             NA     NA      NA
##  4       5               809.             NA     NA      NA
##  5       6               689.             NA     NA      NA
##  6       6               827.             NA     NA      NA
##  7       8               785.             NA     NA      NA
##  8       9               882.             NA     NA      NA
##  9       9              1282.             NA     NA      NA
## 10      10               732.             NA     NA      NA
## # … with 41 more rows

#Variance
new_df_j %>% group_by(percent,insurance_premiums) %>% summarise_if(is.numeric,list(var=var), na.rm = T)

## # A tibble: 51 x 5
## # Groups:   percent [37]
##    percent insurance_premiums num_drivers_var pop_var SATV_var
##      <int>              <dbl>           <dbl>   <dbl>    <dbl>
##  1       4               896.              NA      NA       NA
##  2       5               649.              NA      NA       NA
##  3       5               669.              NA      NA       NA
##  4       5               809.              NA      NA       NA
##  5       6               689.              NA      NA       NA
##  6       6               827.              NA      NA       NA
##  7       8               785.              NA      NA       NA
##  8       9               882.              NA      NA       NA
##  9       9              1282.              NA      NA       NA
## 10      10               732.              NA      NA       NA
## # … with 41 more rows
…
max_df <- new_df_j %>% summarise_if(is.numeric,list(max=max),na.rm = T)
max_df %>% pivot_longer(cols = 2:5,names_to = "stat",values_to = "Value")

## # A tibble: 4 x 3
##   num_drivers_max stat                    Value
##             <dbl> <chr>                   <dbl>
## 1            23.9 insurance_premiums_max  1302.
## 2            23.9 pop_max                29760 
## 3            23.9 SATV_max                 511 
## 4            23.9 percent_max               74

new_df_j %>% group_by(percent,insurance_premiums)%>%summarize_if(is.numeric,list(mean=mean),na.rm=T)

## # A tibble: 51 x 5
## # Groups:   percent [37]
##    percent insurance_premiums num_drivers_mean pop_mean SATV_mean
##      <int>              <dbl>            <dbl>    <dbl>     <dbl>
##  1       4               896.             17.6     2573       477
##  2       5               649.             15.7     2777       511
##  3       5               669.             19.4      696       506
##  4       5               809.             11.3     1723       492
##  5       6               689.             23.9      639       505
##  6       6               827.             22.4     2351       470
##  7       8               785.             18.8     4041       470
##  8       9               882.             19.9     3146       478
##  9       9              1282.             20.5     4220       476
## 10      10               732.             14.9     1578       484
## # … with 41 more rows
…
